src/FunctionalCorrectness/PRESENT/simulation_out_iverilog.txt
          1  0010 0000
          2  0011 1110
          3  0101 0001
          4  1110 1101
          5  1000 0110
          6  1101 1101
          7  0110 1110
          8  1011 1111
          9  0110 1100
         10  0100 1111
         11  0101 0110
         12  0010 1101
         13  1000 1110
         14  0011 1101
         15  0100 0001
         16  0011 0110
         17  0100 0001
         18  0111 0110
         19  0111 1100
         20  0111 1100
         21  0011 1100
         22  0010 0001
         23  0000 1110
         24  0001 0000
         25  0111 0111
         26  0110 1100
         27  0101 1111
         28  0000 1101
         29  1010 0000
         30  0011 0111
         31  0001 0001
         32  0110 0111
         33  0010 1111
         34  0000 1110
         35  0000 0000
         36  0100 0000
         37  0000 0110
         38  0101 0000
         39  0010 1101
         40  0111 1110
         41  0011 1100
         42  1101 0001
         43  1000 1110
         44  1100 1101
         45  0011 0001
         46  0011 0001
         47  0010 0001
         48  0101 1110
         49  0001 1101
         50  0000 0111
         51  1101 0000
         52  1100 1110
         53  0111 0001
         54  0000 1100
         55  0010 0000
         56  0110 1110
         57  0001 1111
         58  0100 0111
         59  0101 0110
         60  0101 1101
         61  1010 1101
         62  1101 0111
         63  0001 1110
         64  0101 0111
         65  1001 1101
         66  1100 0000
         67  1100 0001
         68  1101 0001
         69  0111 1110
         70  0010 1100
         71  0001 1110
         72  0100 0111
         73  1010 0110
         74  1000 0111
         75  1000 1101
         76  0011 1101
         77  0010 0001
         78  0000 1110
         79  0111 0000
         80  0100 1100
         81  0011 0110
         82  0010 0001
         83  1011 1110
         84  0101 1100
         85  0001 1101
         86  0011 0111
         87  0001 0001
         88  0010 0111
         89  0111 1110
         90  1101 1100
         91  0010 1110
         92  1100 1110
         93  0111 0001
         94  1000 1100
         95  0101 1101
         96  0001 1101
         97  0111 0111
         98  1100 1100
         99  1100 0001
        100  0001 0001
        101  0011 0111
        102  0111 0001
        103  0111 1100
        104  1110 1100
        105  0011 0110
        106  0100 0001
        107  0110 0110
        108  0011 1111
        109  1111 0001
        110  0101 1111
        111  0101 1101
        112  1101 1101
        113  0111 1110
        114  0101 1100
        115  0110 1101
        116  0010 1111
        117  0000 1110
        118  0100 0000
        119  0100 0110
        120  0111 0110
        121  0000 1100
        122  0111 0000
        123  0111 1100
        124  0110 1100
        125  1101 1111
        126  0111 1110
        127  0001 1100
        128  0000 0111
        129  1110 0000
        130  0101 0110
        131  0010 1101
        132  0001 1110
        133  0110 0111
        134  1101 1111
        135  0011 1110
        136  0000 0001
        137  0011 0000
        138  0011 0001
        139  1100 0001
        140  1111 0001
        141  1110 1111
        142  0100 0110
        143  0110 0110
        144  1100 1111
        145  0111 0001
        146  1010 1100
        147  1001 0111
        148  0000 0000
        149  0000 0000
        150  0100 0000
        151  0100 0110
        152  0010 0110
        153  0010 1110
        154  0010 1110
        155  0111 1110
        156  0100 1100
        157  0100 0110
        158  0011 0110
        159  0000 0001
        160  0100 0000
        161  0010 0110
        162  0010 1110
        163  1100 1110
        164  0000 0001
        165  0111 0000
        166  1100 1100
        167  0000 0001
        168  0000 0000
        169  0000 0000
        170  0000 0000
        171  0000 0000
        172  0000 0000
        173  0000 0000
        174  0000 0000
        175  0000 0000
        176  0000 0000
        177  0000 0000
        178  0000 0000
        179  0000 0000
        180  0000 0000
        181  0000 0000
        182  0000 0000
        183  0000 0000
        184  0000 0000
        185  0000 0000
        186  0000 0000
        187  0000 0000
        188  0000 0000
        189  0000 0000
        190  0000 0000
        191  0000 0000
        192  0000 0000
        193  0000 0000
        194  0000 0000
        195  0000 0000
        196  0000 0000
        197  0000 0000
        198  0000 0000
        199  0000 0000
        200  0000 0000
        201  0000 0000
        202  0000 0000
        203  0000 0000
        204  0000 0000
        205  0000 0000
        206  0000 0000
        207  0000 0000
        208  0000 0000
        209  0000 0000
        210  0000 0000
        211  0000 0000
        212  0000 0000
        213  0000 0000
        214  0000 0000
        215  0000 0000
        216  0000 0000
        217  0000 0000
        218  0000 0000
        219  0000 0000
        220  0000 0000
        221  0000 0000
        222  0000 0000
        223  0000 0000
        224  0000 0000
        225  0000 0000
        226  0000 0000
        227  0000 0000
        228  0000 0000
        229  0000 0000
        230  0000 0000
        231  0000 0000
        232  0000 0000
        233  0000 0000
        234  0000 0000
        235  0000 0000
        236  0000 0000
        237  0000 0000
        238  0000 0000
        239  0000 0000
        240  0000 0000
        241  0000 0000
        242  0000 0000
        243  0000 0000
        244  0000 0000
        245  0000 0000
        246  0000 0000
        247  0000 0000
        248  0000 0000
        249  0000 0000
        250  0000 0000
        251  0000 0000
        252  0000 0000
        253  0000 0000
        254  0000 0000
        255  0000 0000
        256  0000 0000
        257  0000 0000
        258  0000 0000
        259  0000 0000
        260  0000 0000
        261  0000 0000
        262  0000 0000
        263  0000 0000
        264  0000 0000
        265  0000 0000
        266  0000 0000
        267  0000 0000
        268  0000 0000
        269  0000 0000
        270  0000 0000
        271  0000 0000
        272  0000 0000
        273  0000 0000
        274  0000 0000
        275  0000 0000
        276  0000 0000
        277  0000 0000
        278  0000 0000
        279  0000 0000
        280  0000 0000
        281  0000 0000
        282  0000 0000
        283  0000 0000
        284  0000 0000
        285  0000 0000
        286  0000 0000
        287  0000 0000
        288  0000 0000
        289  0000 0000
        290  0000 0000
        291  0000 0000
        292  0000 0000
        293  0000 0000
        294  0000 0000
        295  0000 0000
        296  0000 0000
        297  0000 0000
        298  0000 0000
        299  0000 0000
        300  0000 0000
        301  0000 0000
        302  0000 0000
        303  0000 0000
        304  0000 0000
        305  0000 0000
        306  0000 0000
        307  0000 0000
        308  0000 0000
        309  0000 0000
        310  0000 0000
        311  0000 0000
        312  0000 0000
        313  0000 0000
        314  0000 0000
        315  0000 0000
        316  0000 0000
        317  0000 0000
        318  0000 0000
        319  0000 0000
        320  0000 0000
        321  0000 0000
        322  0000 0000
        323  0000 0000
        324  0000 0000
        325  0000 0000
        326  0000 0000
        327  0000 0000
        328  0000 0000
        329  0000 0000
        330  0000 0000
        331  0000 0000
        332  0000 0000
        333  0100 0000
        334  0111 0110
        335  0100 1100
        336  0110 0110
        337  0110 1111
        338  0010 1111
        339  0111 1110
        340  0110 1100
        341  0011 1111
        342  0100 0001
        343  1010 0110
        344  0001 0111
        345  0000 0111
        346  1101 0000
        347  0001 1110
        348  0011 0111
        349  0100 0001
        350  1101 0110
        351  1101 1110
        352  0111 1110
        353  0101 1100
        354  0101 1101
        355  0111 1101
        356  0101 1100
        357  0101 1101
        358  1100 1101
        359  1110 0001
        360  1111 0110
        361  0011 1111
        362  1111 0001
        363  1101 1111
        364  0000 1110
        365  0000 0000
        366  1101 0000
        367  0111 1110
        368  0000 1100
        369  0111 0000
        370  1010 1100
        371  0111 0111
        372  0101 1100
        373  0110 1101
        374  0110 1111
        375  0100 1111
        376  1011 0110
        377  0001 1100
        378  0110 0111
        379  0011 1111
        380  0000 0001
        381  0011 0000
        382  0101 0001
        383  0101 1101
        384  0011 1101
        385  1011 0001
        386  0010 1100
        387  0011 1110
        388  0010 0001
        389  1001 1110
        390  0010 0000
        391  0000 1110
        392  0101 0000
        393  0111 1101
        394  0010 1100
        395  0100 1110
        396  1111 0110
        397  0111 1111
        398  1000 1100
        399  1100 1101
        400  1101 0001
        401  1010 1110
        402  0111 0111
        403  1111 1100
        404  0000 1111
        405  0001 0000
        406  0101 0111
        407  0100 1101
        408  0101 0110
        409  0101 1101
        410  0101 1101
        411  0001 1101
        412  0000 0111
        413  0110 0000
        414  0010 1111
        415  0111 1110
        416  0110 1100
        417  0111 1111
        418  0000 1100
        419  1001 0000
        420  1010 0000
        421  0111 0111
        422  0110 1100
        423  0000 1111
        424  0100 0000
        425  0011 0110
        426  0111 0001
        427  0101 1100
        428  0100 1101
        429  0111 0110
        430  1110 1100
        431  0000 0110
        432  1000 0000
        433  0111 1101
        434  0010 1100
        435  0010 1110
        436  0111 1110
        437  1100 1100
        438  0100 0001
        439  0100 0110
        440  1111 0110
        441  0110 1111
        442  0101 1111
        443  0101 1101
        444  0111 1101
        445  1000 1100
        446  0001 1101
        447  0001 0111
        448  0100 0111
        449  0011 0110
        450  0111 0001
        451  0011 1100
        452  1001 0001
        453  0110 0000
        454  0101 1111
        455  1111 1101
        456  0010 1111
        457  1100 1110
        458  1100 0001
        459  0000 0001
        460  0010 0000
        461  0101 1110
        462  0110 1101
        463  1001 1111
        464  0010 0000
        465  0101 1110
        466  1110 1101
        467  0110 0110
        468  0100 1111
        469  0110 0110
        470  0010 1111
        471  0110 1110
        472  0001 1111
        473  0010 0111
        474  1010 1110
        475  0110 0111
        476  0001 1111
        477  0100 0111
        478  0000 0110
        479  0111 0000
        480  0000 1100
        481  0110 0000
        482  1100 1111
        483  1110 0001
        484  0101 0110
        485  0100 1101
        486  0100 0110
        487  0011 0110
        488  0000 0001
        489  0110 0000
        490  0111 1111
        491  0010 1100
        492  0100 1110
        493  0000 0110
        494  0101 0000
        495  0101 1101
        496  0111 1101
        497  0011 1100
        498  0000 0001
        499  xxxx 0000
present_tb.v:68: $finish called at 14955 (1ns)
